     	    /)-_-(\        /)-_-(\
             (o o)          (o o)
     .-----__/\o/            \o/\__-----.
    /  __      /              \      __  \
\__/\ /  \_\ |/                \| /_/  \ /\__/
     \\     ||                  ||      \\
     //     ||                  ||      //
     |\     |\                  /|     /|
